<?xml version="1.0" encoding="utf-8"?>
<!-- Generator: Adobe Illustrator 19.2.1, SVG Export Plug-In . SVG Version: 6.00 Build 0)  -->
<svg version="1.1" id="Layer_1" xmlns="http://www.w3.org/2000/svg" xmlns:xlink="http://www.w3.org/1999/xlink" x="0px" y="0px"
	 viewBox="0 0 61.2 64.9" style="enable-background:new 0 0 61.2 64.9;" xml:space="preserve">
<style type="text/css">
	.st0{fill:#0099A9;}
</style>
<path class="st0" d="M59.7,42.4c-8.8,10.2-19.9,22.5-32.4,22.5c-8.4,0-14.8-5.6-17.2-12.1c-3.2-8.3-7.1-18.9-9.8-27.4
	C-0.5,22.9,0.4,21.6,2,21c1.7-0.6,3.2,0.3,4,1.8c2.2,4.3,4.4,9,5.2,10.4c0.5,0.9,0.9,1.4,1.6,1.1c0.9-0.3,0.6-1.3,0.3-3.2
	c-0.3-2-2.2-13.1-2.8-16.2c-0.7-4,0.7-5.8,2.7-6.4c2.1-0.6,4.3,0.8,4.8,3.1c1,4.8,1.9,11.3,3.2,16.9c0.2,0.8,0.9,1.5,1.7,1.3
	c0.9-0.2,1.7-0.6,1.7-1.8c0-0.7,0.1-23.3,0.1-23.3c0-3.1,1.9-4.8,3.8-4.8c1.9,0,3.9,1.4,3.9,4.8v23.5c0,0.9,1.9,1.5,2.4,1.6
	c0.9,0.2,1.4-0.2,1.7-1.1c0.3-1.2,2.9-16.7,2.9-16.7c0.3-2,2.2-3.5,4.2-3.2c2,0.3,3.7,2.2,3.4,4.5c0,0-2.7,15.8-3.9,23.5
	c-0.8,5.1,2.6,6.5,4.4,5c2-1.6,4.4-4.1,6.2-5.9c1.8-1.8,4.4-2.5,6.3-0.7C61.8,36.9,61.7,40.1,59.7,42.4z"/>
</svg>
